#
# There is insufficient memory for the Java Runtime Environment to continue.
# Native memory allocation (mmap) failed to map 67108864 bytes for committing reserved memory.
# Possible reasons:
#   The system is out of physical RAM or swap space
#   In 32 bit mode, the process size limit was hit
# Possible solutions:
#   Reduce memory load on the system
#   Increase physical memory or swap space
#   Check if swap backing store is full
#   Use 64 bit Java on a 64 bit OS
#   Decrease Java heap size (-Xmx/-Xms)
#   Decrease number of Java threads
#   Decrease Java thread stack sizes (-Xss)
#   Set larger code cache with -XX:ReservedCodeCacheSize=
# This output file may be truncated or incomplete.
#
#  Out of Memory Error (os_linux.cpp:2643), pid=9400, tid=0x00007f6dfc793700
#
# JRE version: OpenJDK Runtime Environment (8.0_181-b13) (build 1.8.0_181-8u181-b13-0ubuntu0.16.04.1-b13)
# Java VM: OpenJDK 64-Bit Server VM (25.181-b13 mixed mode linux-amd64 compressed oops)
# Failed to write core dump. Core dumps have been disabled. To enable core dumping, try "ulimit -c unlimited" before starting Java again
#

---------------  T H R E A D  ---------------

Current thread (0x00007f6e10079000):  VMThread [stack: 0x00007f6dfc693000,0x00007f6dfc794000] [id=9410]

Stack: [0x00007f6dfc693000,0x00007f6dfc794000],  sp=0x00007f6dfc7924a0,  free space=1021k
Native frames: (J=compiled Java code, j=interpreted, Vv=VM code, C=native code)
V  [libjvm.so+0xa70edb]
V  [libjvm.so+0x4c893c]
V  [libjvm.so+0x8bda08]
V  [libjvm.so+0x8b7d9e]
V  [libjvm.so+0x933206]
V  [libjvm.so+0x934533]
V  [libjvm.so+0x930bfb]
V  [libjvm.so+0x929a29]
V  [libjvm.so+0x44c943]
V  [libjvm.so+0xa72469]
V  [libjvm.so+0xa77d27]
V  [libjvm.so+0xa75427]
V  [libjvm.so+0xa768af]
V  [libjvm.so+0xa76da1]
V  [libjvm.so+0x8bae12]

VM_Operation (0x00007f6dc37f57d0): CollectForMetadataAllocation, mode: safepoint, requested by thread 0x00007f6dd0010800


---------------  P R O C E S S  ---------------

Java Threads: ( => current thread )
  0x00007f6dd0010800 JavaThread "background-preinit" [_thread_blocked, id=9433, stack(0x00007f6dc36f9000,0x00007f6dc37fa000)]
  0x00007f6dc4002800 JavaThread "restartedMain" [_thread_blocked, id=9432, stack(0x00007f6dc37fa000,0x00007f6dc38fb000)]
  0x00007f6e1090c800 JavaThread "Thread-2" [_thread_blocked, id=9431, stack(0x00007f6dc38fb000,0x00007f6dc39fc000)]
  0x0000000000b78000 JavaThread "JMX server connection timeout 15" daemon [_thread_blocked, id=9429, stack(0x00007f6dc3bfc000,0x00007f6dc3cfd000)]
  0x00007f6dbc011000 JavaThread "RMI Scheduler(0)" daemon [_thread_blocked, id=9428, stack(0x00007f6dc3cfd000,0x00007f6dc3dfe000)]
  0x00007f6dcc001000 JavaThread "RMI TCP Connection(2)-127.0.0.1" daemon [_thread_in_native, id=9427, stack(0x00007f6dc3dfe000,0x00007f6dc3eff000)]
  0x00007f6dd0001000 JavaThread "RMI TCP Connection(1)-127.0.0.1" daemon [_thread_in_native, id=9425, stack(0x00007f6dc3eff000,0x00007f6dc4000000)]
  0x00007f6e105ed000 JavaThread "RMI TCP Accept-0" daemon [_thread_in_native, id=9423, stack(0x00007f6de4137000,0x00007f6de4238000)]
  0x00007f6e105e3000 JavaThread "RMI TCP Accept-42123" daemon [_thread_in_native, id=9422, stack(0x00007f6de4238000,0x00007f6de4339000)]
  0x00007f6e105ca000 JavaThread "RMI TCP Accept-0" daemon [_thread_in_native, id=9421, stack(0x00007f6de4339000,0x00007f6de443a000)]
  0x00007f6e100d1000 JavaThread "Service Thread" daemon [_thread_blocked, id=9417, stack(0x00007f6de7cfd000,0x00007f6de7dfe000)]
  0x00007f6e100bc800 JavaThread "C1 CompilerThread1" daemon [_thread_blocked, id=9416, stack(0x00007f6de7dfe000,0x00007f6de7eff000)]
  0x00007f6e100b9800 JavaThread "C2 CompilerThread0" daemon [_thread_blocked, id=9415, stack(0x00007f6de7eff000,0x00007f6de8000000)]
  0x00007f6e100b8000 JavaThread "Signal Dispatcher" daemon [_thread_blocked, id=9413, stack(0x00007f6dfc0b6000,0x00007f6dfc1b7000)]
  0x00007f6e10085800 JavaThread "Finalizer" daemon [_thread_blocked, id=9412, stack(0x00007f6dfc491000,0x00007f6dfc592000)]
  0x00007f6e10081000 JavaThread "Reference Handler" daemon [_thread_blocked, id=9411, stack(0x00007f6dfc592000,0x00007f6dfc693000)]
  0x00007f6e10010000 JavaThread "main" [_thread_blocked, id=9407, stack(0x00007f6e16a71000,0x00007f6e16b72000)]

Other Threads:
=>0x00007f6e10079000 VMThread [stack: 0x00007f6dfc693000,0x00007f6dfc794000] [id=9410]
  0x00007f6e105f1800 WatcherThread [stack: 0x00007f6de4036000,0x00007f6de4137000] [id=9424]

VM state:at safepoint (normal execution)

VM Mutex/Monitor currently owned by a thread:  ([mutex/lock_event])
[0x00007f6e1000c370] Threads_lock - owner thread: 0x00007f6e10079000
[0x00007f6e1000c870] Heap_lock - owner thread: 0x00007f6dd0010800

Heap:
 PSYoungGen      total 69120K, used 6116K [0x00000000eb980000, 0x00000000f0380000, 0x0000000100000000)
  eden space 62976K, 0% used [0x00000000eb980000,0x00000000eb980000,0x00000000ef700000)
  from space 6144K, 99% used [0x00000000ef700000,0x00000000efcf92d0,0x00000000efd00000)
  to   space 5632K, 0% used [0x00000000efd00000,0x00000000efd00000,0x00000000f0280000)
 ParOldGen       total 42496K, used 6980K [0x00000000c2c00000, 0x00000000c5580000, 0x00000000eb980000)
  object space 42496K, 16% used [0x00000000c2c00000,0x00000000c32d12e0,0x00000000c5580000)
 Metaspace       used 20666K, capacity 21192K, committed 21296K, reserved 1067008K
  class space    used 2651K, capacity 2817K, committed 2864K, reserved 1048576K

Card table byte_map: [0x00007f6dffddd000,0x00007f6dfffc8000] byte_map_base: 0x00007f6dff7c7000

Marking Bits: (ParMarkBitMap*) 0x00007f6e15d3d3a0
 Begin Bits: [0x00007f6dfdd3b000, 0x00007f6dfec8b000)
 End Bits:   [0x00007f6dfec8b000, 0x00007f6dffbdb000)

Polling page: 0x00007f6e16b91000

CodeCache: size=245760Kb used=3417Kb max_used=3417Kb free=242342Kb
 bounds [0x00007f6e00388000, 0x00007f6e006e8000, 0x00007f6e0f388000]
 total_blobs=1977 nmethods=1585 adapters=307
 compilation: enabled

Compilation events (10 events):
Event: 9.926 Thread 0x00007f6e100bc800 1582       1       java.lang.reflect.Array::newInstance (6 bytes)
Event: 9.927 Thread 0x00007f6e100bc800 nmethod 1582 0x00007f6e006dcc10 code [0x00007f6e006dcd80, 0x00007f6e006dce88]
Event: 9.927 Thread 0x00007f6e100bc800 1583       1       sun.reflect.annotation.AnnotationType::invocationHandlerReturnType (82 bytes)
Event: 9.927 Thread 0x00007f6e100bc800 nmethod 1583 0x00007f6e006dcf10 code [0x00007f6e006dd0a0, 0x00007f6e006dd2d0]
Event: 9.928 Thread 0x00007f6e100bc800 1584       1       org.springframework.util.StringUtils::toStringArray (14 bytes)
Event: 9.930 Thread 0x00007f6e100bc800 nmethod 1584 0x00007f6e006dd310 code [0x00007f6e006dd480, 0x00007f6e006dd648]
Event: 9.934 Thread 0x00007f6e100bc800 1585       1       sun.reflect.Reflection::filter (220 bytes)
Event: 9.937 Thread 0x00007f6e100bc800 nmethod 1585 0x00007f6e006dd710 code [0x00007f6e006dd8c0, 0x00007f6e006ddd48]
Event: 9.949 Thread 0x00007f6e100bc800 1586       1       java.lang.ClassLoader::findLoadedClass (16 bytes)
Event: 9.949 Thread 0x00007f6e100bc800 nmethod 1586 0x00007f6e006de1d0 code [0x00007f6e006de340, 0x00007f6e006de4b8]

GC Heap History (10 events):
Event: 3.262 GC heap after
Heap after GC invocations=2 (full 0):
 PSYoungGen      total 18432K, used 2529K [0x00000000eb980000, 0x00000000edd80000, 0x0000000100000000)
  eden space 15872K, 0% used [0x00000000eb980000,0x00000000eb980000,0x00000000ec900000)
  from space 2560K, 98% used [0x00000000ecb80000,0x00000000ecdf84b0,0x00000000ece00000)
  to   space 2560K, 0% used [0x00000000ec900000,0x00000000ec900000,0x00000000ecb80000)
 ParOldGen       total 42496K, used 1642K [0x00000000c2c00000, 0x00000000c5580000, 0x00000000eb980000)
  object space 42496K, 3% used [0x00000000c2c00000,0x00000000c2d9a8c0,0x00000000c5580000)
 Metaspace       used 10657K, capacity 10900K, committed 11136K, reserved 1058816K
  class space    used 1282K, capacity 1358K, committed 1408K, reserved 1048576K
}
Event: 3.276 GC heap before
{Heap before GC invocations=3 (full 0):
 PSYoungGen      total 18432K, used 18392K [0x00000000eb980000, 0x00000000edd80000, 0x0000000100000000)
  eden space 15872K, 99% used [0x00000000eb980000,0x00000000ec8fdc18,0x00000000ec900000)
  from space 2560K, 98% used [0x00000000ecb80000,0x00000000ecdf84b0,0x00000000ece00000)
  to   space 2560K, 0% used [0x00000000ec900000,0x00000000ec900000,0x00000000ecb80000)
 ParOldGen       total 42496K, used 1642K [0x00000000c2c00000, 0x00000000c5580000, 0x00000000eb980000)
  object space 42496K, 3% used [0x00000000c2c00000,0x00000000c2d9a8c0,0x00000000c5580000)
 Metaspace       used 10657K, capacity 10900K, committed 11136K, reserved 1058816K
  class space    used 1282K, capacity 1358K, committed 1408K, reserved 1048576K
Event: 3.286 GC heap after
Heap after GC invocations=3 (full 0):
 PSYoungGen      total 18432K, used 2530K [0x00000000eb980000, 0x00000000edd80000, 0x0000000100000000)
  eden space 15872K, 0% used [0x00000000eb980000,0x00000000eb980000,0x00000000ec900000)
  from space 2560K, 98% used [0x00000000ec900000,0x00000000ecb78900,0x00000000ecb80000)
  to   space 2560K, 0% used [0x00000000edb00000,0x00000000edb00000,0x00000000edd80000)
 ParOldGen       total 42496K, used 1642K [0x00000000c2c00000, 0x00000000c5580000, 0x00000000eb980000)
  object space 42496K, 3% used [0x00000000c2c00000,0x00000000c2d9a8c0,0x00000000c5580000)
 Metaspace       used 10657K, capacity 10900K, committed 11136K, reserved 1058816K
  class space    used 1282K, capacity 1358K, committed 1408K, reserved 1048576K
}
Event: 3.460 GC heap before
{Heap before GC invocations=4 (full 0):
 PSYoungGen      total 18432K, used 18402K [0x00000000eb980000, 0x00000000edd80000, 0x0000000100000000)
  eden space 15872K, 100% used [0x00000000eb980000,0x00000000ec900000,0x00000000ec900000)
  from space 2560K, 98% used [0x00000000ec900000,0x00000000ecb78900,0x00000000ecb80000)
  to   space 2560K, 0% used [0x00000000edb00000,0x00000000edb00000,0x00000000edd80000)
 ParOldGen       total 42496K, used 1642K [0x00000000c2c00000, 0x00000000c5580000, 0x00000000eb980000)
  object space 42496K, 3% used [0x00000000c2c00000,0x00000000c2d9a8c0,0x00000000c5580000)
 Metaspace       used 11017K, capacity 11340K, committed 11520K, reserved 1058816K
  class space    used 1344K, capacity 1439K, committed 1536K, reserved 1048576K
Event: 3.477 GC heap after
Heap after GC invocations=4 (full 0):
 PSYoungGen      total 34304K, used 2536K [0x00000000eb980000, 0x00000000edd80000, 0x0000000100000000)
  eden space 31744K, 0% used [0x00000000eb980000,0x00000000eb980000,0x00000000ed880000)
  from space 2560K, 99% used [0x00000000edb00000,0x00000000edd7a0b8,0x00000000edd80000)
  to   space 2560K, 0% used [0x00000000ed880000,0x00000000ed880000,0x00000000edb00000)
 ParOldGen       total 42496K, used 2884K [0x00000000c2c00000, 0x00000000c5580000, 0x00000000eb980000)
  object space 42496K, 6% used [0x00000000c2c00000,0x00000000c2ed1310,0x00000000c5580000)
 Metaspace       used 11017K, capacity 11340K, committed 11520K, reserved 1058816K
  class space    used 1344K, capacity 1439K, committed 1536K, reserved 1048576K
}
Event: 4.408 GC heap before
{Heap before GC invocations=5 (full 0):
 PSYoungGen      total 34304K, used 34280K [0x00000000eb980000, 0x00000000edd80000, 0x0000000100000000)
  eden space 31744K, 100% used [0x00000000eb980000,0x00000000ed880000,0x00000000ed880000)
  from space 2560K, 99% used [0x00000000edb00000,0x00000000edd7a0b8,0x00000000edd80000)
  to   space 2560K, 0% used [0x00000000ed880000,0x00000000ed880000,0x00000000edb00000)
 ParOldGen       total 42496K, used 2884K [0x00000000c2c00000, 0x00000000c5580000, 0x00000000eb980000)
  object space 42496K, 6% used [0x00000000c2c00000,0x00000000c2ed1310,0x00000000c5580000)
 Metaspace       used 13933K, capacity 14380K, committed 14464K, reserved 1062912K
  class space    used 1725K, capacity 1877K, committed 1920K, reserved 1048576K
Event: 4.464 GC heap after
Heap after GC invocations=5 (full 0):
 PSYoungGen      total 34304K, used 2532K [0x00000000eb980000, 0x00000000f0280000, 0x0000000100000000)
  eden space 31744K, 0% used [0x00000000eb980000,0x00000000eb980000,0x00000000ed880000)
  from space 2560K, 98% used [0x00000000ed880000,0x00000000edaf9280,0x00000000edb00000)
  to   space 5632K, 0% used [0x00000000efd00000,0x00000000efd00000,0x00000000f0280000)
 ParOldGen       total 42496K, used 5332K [0x00000000c2c00000, 0x00000000c5580000, 0x00000000eb980000)
  object space 42496K, 12% used [0x00000000c2c00000,0x00000000c3135138,0x00000000c5580000)
 Metaspace       used 13933K, capacity 14380K, committed 14464K, reserved 1062912K
  class space    used 1725K, capacity 1877K, committed 1920K, reserved 1048576K
}
Event: 6.163 GC heap before
{Heap before GC invocations=6 (full 0):
 PSYoungGen      total 34304K, used 34276K [0x00000000eb980000, 0x00000000f0280000, 0x0000000100000000)
  eden space 31744K, 100% used [0x00000000eb980000,0x00000000ed880000,0x00000000ed880000)
  from space 2560K, 98% used [0x00000000ed880000,0x00000000edaf9280,0x00000000edb00000)
  to   space 5632K, 0% used [0x00000000efd00000,0x00000000efd00000,0x00000000f0280000)
 ParOldGen       total 42496K, used 5332K [0x00000000c2c00000, 0x00000000c5580000, 0x00000000eb980000)
  object space 42496K, 12% used [0x00000000c2c00000,0x00000000c3135138,0x00000000c5580000)
 Metaspace       used 15824K, capacity 16284K, committed 16384K, reserved 1062912K
  class space    used 2068K, capacity 2207K, committed 2304K, reserved 1048576K
Event: 6.287 GC heap after
Heap after GC invocations=6 (full 0):
 PSYoungGen      total 68608K, used 5000K [0x00000000eb980000, 0x00000000f0380000, 0x0000000100000000)
  eden space 62976K, 0% used [0x00000000eb980000,0x00000000eb980000,0x00000000ef700000)
  from space 5632K, 88% used [0x00000000efd00000,0x00000000f01e21e8,0x00000000f0280000)
  to   space 6144K, 0% used [0x00000000ef700000,0x00000000ef700000,0x00000000efd00000)
 ParOldGen       total 42496K, used 5332K [0x00000000c2c00000, 0x00000000c5580000, 0x00000000eb980000)
  object space 42496K, 12% used [0x00000000c2c00000,0x00000000c3135138,0x00000000c5580000)
 Metaspace       used 15824K, capacity 16284K, committed 16384K, reserved 1062912K
  class space    used 2068K, capacity 2207K, committed 2304K, reserved 1048576K
}
Event: 9.961 GC heap before
{Heap before GC invocations=7 (full 0):
 PSYoungGen      total 68608K, used 47900K [0x00000000eb980000, 0x00000000f0380000, 0x0000000100000000)
  eden space 62976K, 68% used [0x00000000eb980000,0x00000000ee365048,0x00000000ef700000)
  from space 5632K, 88% used [0x00000000efd00000,0x00000000f01e21e8,0x00000000f0280000)
  to   space 6144K, 0% used [0x00000000ef700000,0x00000000ef700000,0x00000000efd00000)
 ParOldGen       total 42496K, used 5332K [0x00000000c2c00000, 0x00000000c5580000, 0x00000000eb980000)
  object space 42496K, 12% used [0x00000000c2c00000,0x00000000c3135138,0x00000000c5580000)
 Metaspace       used 20666K, capacity 21192K, committed 21296K, reserved 1067008K
  class space    used 2651K, capacity 2817K, committed 2864K, reserved 1048576K

Deoptimization events (0 events):
No events

Classes redefined (0 events):
No events

Internal exceptions (10 events):
Event: 8.529 Thread 0x00007f6dc4002800 Exception <a 'java/lang/ClassNotFoundException': org/springframework/context/annotation/ConfigurationClassPostProcessorCustomizer> (0x00000000ed5395e8) thrown at [/build/openjdk-8-pREaNj/openjdk-8-8u181-b13/src/hotspot/src/share/vm/classfile/systemDiction
Event: 8.589 Thread 0x00007f6dc4002800 Exception <a 'java/lang/ClassNotFoundException': org/springframework/beans/factory/support/BeanDefinitionRegistryPostProcessorCustomizer> (0x00000000ed65ccd8) thrown at [/build/openjdk-8-pREaNj/openjdk-8-8u181-b13/src/hotspot/src/share/vm/classfile/system
Event: 8.599 Thread 0x00007f6dc4002800 Exception <a 'java/lang/ClassNotFoundException': org/springframework/core/PriorityOrderedCustomizer> (0x00000000ed6782f8) thrown at [/build/openjdk-8-pREaNj/openjdk-8-8u181-b13/src/hotspot/src/share/vm/classfile/systemDictionary.cpp, line 210]
Event: 8.609 Thread 0x00007f6dc4002800 Exception <a 'java/lang/ClassNotFoundException': org/springframework/context/ResourceLoaderAwareCustomizer> (0x00000000ed6959b0) thrown at [/build/openjdk-8-pREaNj/openjdk-8-8u181-b13/src/hotspot/src/share/vm/classfile/systemDictionary.cpp, line 210]
Event: 8.628 Thread 0x00007f6dc4002800 Exception <a 'java/lang/ClassNotFoundException': org/springframework/beans/factory/BeanClassLoaderAwareCustomizer> (0x00000000ed6b6e10) thrown at [/build/openjdk-8-pREaNj/openjdk-8-8u181-b13/src/hotspot/src/share/vm/classfile/systemDictionary.cpp, line 21
Event: 8.630 Thread 0x00007f6dc4002800 Exception <a 'java/lang/ClassNotFoundException': org/springframework/context/EnvironmentAwareCustomizer> (0x00000000ed6d47d8) thrown at [/build/openjdk-8-pREaNj/openjdk-8-8u181-b13/src/hotspot/src/share/vm/classfile/systemDictionary.cpp, line 210]
Event: 8.707 Thread 0x00007f6dcc001000 Exception <a 'java/lang/reflect/InvocationTargetException'> (0x00000000eb993fc0) thrown at [/build/openjdk-8-pREaNj/openjdk-8-8u181-b13/src/hotspot/src/share/vm/runtime/reflection.cpp, line 1092]
Event: 9.094 Thread 0x00007f6dd0010800 Exception <a 'java/lang/IncompatibleClassChangeError': Found class java.lang.Object, but interface was expected> (0x00000000edc67970) thrown at [/build/openjdk-8-pREaNj/openjdk-8-8u181-b13/src/hotspot/src/share/vm/interpreter/linkResolver.cpp, line 653]
Event: 9.233 Thread 0x00007f6dcc001000 Exception <a 'java/lang/reflect/InvocationTargetException'> (0x00000000eb998520) thrown at [/build/openjdk-8-pREaNj/openjdk-8-8u181-b13/src/hotspot/src/share/vm/runtime/reflection.cpp, line 1092]
Event: 9.786 Thread 0x00007f6dcc001000 Exception <a 'java/lang/reflect/InvocationTargetException'> (0x00000000eb99ca80) thrown at [/build/openjdk-8-pREaNj/openjdk-8-8u181-b13/src/hotspot/src/share/vm/runtime/reflection.cpp, line 1092]

Events (10 events):
Event: 9.911 loading class com/sun/org/apache/xerces/internal/impl/dtd/XMLDTDValidator
Event: 9.912 loading class com/sun/org/apache/xerces/internal/xni/parser/XMLDocumentFilter
Event: 9.912 loading class com/sun/org/apache/xerces/internal/xni/parser/XMLDocumentFilter done
Event: 9.912 loading class com/sun/org/apache/xerces/internal/impl/dtd/XMLDTDValidatorFilter
Event: 9.912 loading class com/sun/org/apache/xerces/internal/impl/dtd/XMLDTDValidatorFilter done
Event: 9.912 loading class com/sun/org/apache/xerces/internal/impl/RevalidationHandler
Event: 9.913 loading class org/springframework/beans/factory/support/BeanDefinitionResource
Event: 9.913 loading class org/springframework/beans/factory/support/BeanDefinitionResource done
Event: 9.923 loading class com/sun/org/apache/xerces/internal/impl/RevalidationHandler done
Event: 9.956 Executing VM operation: CollectForMetadataAllocation


Dynamic libraries:
00400000-00401000 r-xp 00000000 08:01 8658418                            /usr/lib/jvm/java-8-openjdk-amd64/jre/bin/java
00600000-00601000 r--p 00000000 08:01 8658418                            /usr/lib/jvm/java-8-openjdk-amd64/jre/bin/java
00601000-00602000 rw-p 00001000 08:01 8658418                            /usr/lib/jvm/java-8-openjdk-amd64/jre/bin/java
00b59000-00b9c000 rw-p 00000000 00:00 0                                  [heap]
c2c00000-c5580000 rw-p 00000000 00:00 0 
c5580000-eb980000 ---p 00000000 00:00 0 
eb980000-f0380000 rw-p 00000000 00:00 0 
f4380000-100000000 ---p 00000000 00:00 0 
100000000-1002cc000 rw-p 00000000 00:00 0 
1002cc000-140000000 ---p 00000000 00:00 0 
7f6dbc000000-7f6dbc021000 rw-p 00000000 00:00 0 
7f6dbc021000-7f6dc0000000 ---p 00000000 00:00 0 
7f6dc2ef9000-7f6dc30f9000 rw-p 00000000 00:00 0 
7f6dc30f9000-7f6dc32f9000 rw-p 00000000 00:00 0 
7f6dc32f9000-7f6dc34f9000 rw-p 00000000 00:00 0 
7f6dc34f9000-7f6dc36f9000 rw-p 00000000 00:00 0 
7f6dc36f9000-7f6dc36fc000 ---p 00000000 00:00 0 
7f6dc36fc000-7f6dc37fa000 rw-p 00000000 00:00 0 
7f6dc37fa000-7f6dc37fd000 ---p 00000000 00:00 0 
7f6dc37fd000-7f6dc38fb000 rw-p 00000000 00:00 0 
7f6dc38fb000-7f6dc38fe000 ---p 00000000 00:00 0 
7f6dc38fe000-7f6dc3bfc000 rw-p 00000000 00:00 0 
7f6dc3bfc000-7f6dc3bff000 ---p 00000000 00:00 0 
7f6dc3bff000-7f6dc3cfd000 rw-p 00000000 00:00 0 
7f6dc3cfd000-7f6dc3d00000 ---p 00000000 00:00 0 
7f6dc3d00000-7f6dc3dfe000 rw-p 00000000 00:00 0 
7f6dc3dfe000-7f6dc3e01000 ---p 00000000 00:00 0 
7f6dc3e01000-7f6dc3eff000 rw-p 00000000 00:00 0 
7f6dc3eff000-7f6dc3f02000 ---p 00000000 00:00 0 
7f6dc3f02000-7f6dc4000000 rw-p 00000000 00:00 0 
7f6dc4000000-7f6dc4021000 rw-p 00000000 00:00 0 
7f6dc4021000-7f6dc8000000 ---p 00000000 00:00 0 
7f6dc8000000-7f6dc8021000 rw-p 00000000 00:00 0 
7f6dc8021000-7f6dcc000000 ---p 00000000 00:00 0 
7f6dcc000000-7f6dcc256000 rw-p 00000000 00:00 0 
7f6dcc256000-7f6dd0000000 ---p 00000000 00:00 0 
7f6dd0000000-7f6dd0197000 rw-p 00000000 00:00 0 
7f6dd0197000-7f6dd4000000 ---p 00000000 00:00 0 
7f6dd4000000-7f6dd4332000 rw-p 00000000 00:00 0 
7f6dd4332000-7f6dd8000000 ---p 00000000 00:00 0 
7f6dd8000000-7f6dd8021000 rw-p 00000000 00:00 0 
7f6dd8021000-7f6ddc000000 ---p 00000000 00:00 0 
7f6ddc000000-7f6ddc03d000 rw-p 00000000 00:00 0 
7f6ddc03d000-7f6de0000000 ---p 00000000 00:00 0 
7f6de0000000-7f6de0021000 rw-p 00000000 00:00 0 
7f6de0021000-7f6de4000000 ---p 00000000 00:00 0 
7f6de4023000-7f6de4036000 r--s 00346000 08:01 8653899                    /usr/lib/jvm/java-8-openjdk-amd64/jre/lib/resources.jar
7f6de4036000-7f6de4037000 ---p 00000000 00:00 0 
7f6de4037000-7f6de4137000 rw-p 00000000 00:00 0 
7f6de4137000-7f6de413a000 ---p 00000000 00:00 0 
7f6de413a000-7f6de4238000 rw-p 00000000 00:00 0 
7f6de4238000-7f6de423b000 ---p 00000000 00:00 0 
7f6de423b000-7f6de4339000 rw-p 00000000 00:00 0 
7f6de4339000-7f6de433c000 ---p 00000000 00:00 0 
7f6de433c000-7f6de443a000 rw-p 00000000 00:00 0 
7f6de443a000-7f6de443f000 r--s 0009d000 08:01 8653897                    /usr/lib/jvm/java-8-openjdk-amd64/jre/lib/jsse.jar
7f6de443f000-7f6de4442000 r--s 0000f000 08:01 5379524                    /home/stam/.m2/repository/org/eclipse/californium/element-connector/2.0.0-M11/element-connector-2.0.0-M11-tests.jar
7f6de4442000-7f6de4444000 r--s 00009000 08:01 5378835                    /home/stam/.m2/repository/org/slf4j/slf4j-api/1.7.25/slf4j-api-1.7.25.jar
7f6de4444000-7f6de4448000 r--s 0001a000 08:01 5379522                    /home/stam/.m2/repository/org/eclipse/californium/element-connector/2.0.0-M11/element-connector-2.0.0-M11.jar
7f6de4448000-7f6de444f000 r--s 00056000 08:01 5379520                    /home/stam/.m2/repository/org/eclipse/californium/californium-core/2.0.0-M11/californium-core-2.0.0-M11.jar
7f6de444f000-7f6de4458000 r--s 000ed000 08:01 7213254                    /home/stam/.m2/repository/mysql/mysql-connector-java/5.1.47/mysql-connector-java-5.1.47.jar
7f6de4458000-7f6de4459000 r--s 00000000 08:01 7472439                    /home/stam/.m2/repository/org/reactivestreams/reactive-streams/1.0.2/reactive-streams-1.0.2.jar
7f6de4459000-7f6de446d000 r--s 00136000 08:01 7472437                    /home/stam/.m2/repository/io/projectreactor/reactor-core/3.1.9.RELEASE/reactor-core-3.1.9.RELEASE.jar
7f6de446d000-7f6de446f000 r--s 00004000 08:01 7213264                    /home/stam/.m2/repository/org/springframework/spring-jcl/5.0.9.RELEASE/spring-jcl-5.0.9.RELEASE.jar
7f6de446f000-7f6de4487000 r--s 00114000 08:01 7213262                    /home/stam/.m2/repository/org/springframework/spring-core/5.0.9.RELEASE/spring-core-5.0.9.RELEASE.jar
7f6de4487000-7f6de44a8000 r--s 000fe000 08:01 7213208                    /home/stam/.m2/repository/org/springframework/boot/spring-boot-autoconfigure/2.0.5.RELEASE/spring-boot-autoconfigure-2.0.5.RELEASE.jar
7f6de44a8000-7f6de44bd000 r--s 000d0000 08:01 7213206                    /home/stam/.m2/repository/org/springframework/boot/spring-boot/2.0.5.RELEASE/spring-boot-2.0.5.RELEASE.jar
7f6de44bd000-7f6de44c3000 r--s 0002d000 08:01 7471849                    /home/stam/.m2/repository/org/springframework/boot/spring-boot-devtools/2.0.5.RELEASE/spring-boot-devtools-2.0.5.RELEASE.jar
7f6de44c3000-7f6de44cc000 r--s 0005e000 08:01 7471585                    /home/stam/.m2/repository/org/springframework/spring-websocket/5.0.9.RELEASE/spring-websocket-5.0.9.RELEASE.jar
7f6de44cc000-7f6de44d5000 r--s 00054000 08:01 7471583                    /home/stam/.m2/repository/org/springframework/spring-messaging/5.0.9.RELEASE/spring-messaging-5.0.9.RELEASE.jar
7f6de44d5000-7f6de44d6000 r--s 00000000 08:01 7471581                    /home/stam/.m2/repository/org/springframework/boot/spring-boot-starter-websocket/2.0.5.RELEASE/spring-boot-starter-websocket-2.0.5.RELEASE.jar
7f6de44d6000-7f6de44d8000 r--s 00002000 08:01 7472433                    /home/stam/.m2/repository/org/synchronoss/cloud/nio-stream-storage/1.1.3/nio-stream-storage-1.1.3.jar
7f6de44d8000-7f6de44da000 r--s 0000c000 08:01 7472431                    /home/stam/.m2/repository/org/synchronoss/cloud/nio-multipart-parser/1.1.0/nio-multipart-parser-1.1.0.jar
7f6de44da000-7f6de44e9000 r--s 00099000 08:01 7472429                    /home/stam/.m2/repository/org/springframework/spring-webflux/5.0.9.RELEASE/spring-webflux-5.0.9.RELEASE.jar
7f6de44e9000-7f6de44eb000 r--s 00006000 08:01 7472427                    /home/stam/.m2/repository/io/netty/netty-transport-native-unix-common/4.1.29.Final/netty-transport-native-unix-common-4.1.29.Final.jar
7f6de44eb000-7f6de44f8000 r--s 00081000 08:01 7472425                    /home/stam/.m2/repository/io/netty/netty-common/4.1.29.Final/netty-common-4.1.29.Final.jar
7f6de44f8000-7f6de44fb000 r--s 00020000 08:01 7472423                    /home/stam/.m2/repository/io/netty/netty-transport-native-epoll/4.1.29.Final/netty-transport-native-epoll-4.1.29.Final-linux-x86_64.jar
7f6de44fb000-7f6de44ff000 r--s 0001a000 08:01 7472421                    /home/stam/.m2/repository/io/netty/netty-codec-socks/4.1.29.Final/netty-codec-socks-4.1.29.Final.jar
7f6de44ff000-7f6de4501000 r--s 00004000 08:01 7472419                    /home/stam/.m2/repository/io/netty/netty-handler-proxy/4.1.29.Final/netty-handler-proxy-4.1.29.Final.jar
7f6de4501000-7f6de4502000 r--s 00007000 08:01 7472417                    /home/stam/.m2/repository/io/netty/netty-resolver/4.1.29.Final/netty-resolver-4.1.29.Final.jar
7f6de4502000-7f6de450b000 r--s 00068000 08:01 7472415                    /home/stam/.m2/repository/io/netty/netty-transport/4.1.29.Final/netty-transport-4.1.29.Final.jar
7f6de450b000-7f6de450f000 r--s 0003f000 08:01 7472413                    /home/stam/.m2/repository/io/netty/netty-buffer/4.1.29.Final/netty-buffer-4.1.29.Final.jar
7f6de450f000-7f6de4517000 r--s 00059000 08:01 7472411                    /home/stam/.m2/repository/io/netty/netty-handler/4.1.29.Final/netty-handler-4.1.29.Final.jar
7f6de4517000-7f6de451e000 r--s 00047000 08:01 7472409                    /home/stam/.m2/repository/io/netty/netty-codec/4.1.29.Final/netty-codec-4.1.29.Final.jar
7f6de451e000-7f6de4528000 r--s 00080000 08:01 7472407                    /home/stam/.m2/repository/io/netty/netty-codec-http/4.1.29.Final/netty-codec-http-4.1.29.Final.jar
7f6de4528000-7f6de452d000 r--s 0003f000 08:01 7472405                    /home/stam/.m2/repository/io/projectreactor/ipc/reactor-netty/0.7.9.RELEASE/reactor-netty-0.7.9.RELEASE.jar
7f6de452d000-7f6de452e000 r--s 00000000 08:01 7472403                    /home/stam/.m2/repository/org/springframework/boot/spring-boot-starter-reactor-netty/2.0.5.RELEASE/spring-boot-starter-reactor-netty-2.0.5.RELEASE.jar
7f6de452e000-7f6de452f000 r--s 00000000 08:01 6951374                    /home/stam/.m2/repository/org/springframework/boot/spring-boot-starter-webflux/2.0.5.RELEASE/spring-boot-starter-webflux-2.0.5.RELEASE.jar
7f6de452f000-7f6de4539000 r--s 0005c000 08:01 4864301                    /home/stam/.m2/repository/javax/servlet/jstl/1.2/jstl-1.2.jar
7f6de4539000-7f6de454c000 r--s 00244000 08:01 7213819                    /home/stam/.m2/repository/org/eclipse/jdt/ecj/3.12.3/ecj-3.12.3.jar
7f6de454c000-7f6de4551000 r--s 00038000 08:01 7213242                    /home/stam/.m2/repository/org/apache/tomcat/embed/tomcat-embed-el/8.5.34/tomcat-embed-el-8.5.34.jar
7f6de4551000-7f6de4553000 r--s 00002000 08:01 7213817                    /home/stam/.m2/repository/org/apache/tomcat/tomcat-annotations-api/8.5.34/tomcat-annotations-api-8.5.34.jar
7f6de4553000-7f6de457d000 r--s 002d5000 08:01 7213240                    /home/stam/.m2/repository/org/apache/tomcat/embed/tomcat-embed-core/8.5.34/tomcat-embed-core-8.5.34.jar
7f6de457d000-7f6de4587000 r--s 00096000 08:01 7213815                    /home/stam/.m2/repository/org/apache/tomcat/embed/tomcat-embed-jasper/8.5.34/tomcat-embed-jasper-8.5.34.jar
7f6de4587000-7f6de458c000 r--s 00040000 08:01 7213252                    /home/stam/.m2/repository/org/springframework/spring-expression/5.0.9.RELEASE/spring-expression-5.0.9.RELEASE.jar
7f6de458c000-7f6de459b000 r--s 000b3000 08:01 7213250                    /home/stam/.m2/repository/org/springframework/spring-webmvc/5.0.9.RELEASE/spring-webmvc-5.0.9.RELEASE.jar
7f6de459b000-7f6de45b5000 r--s 0011b000 08:01 7213248                    /home/stam/.m2/repository/org/springframework/spring-web/5.0.9.RELEASE/spring-web-5.0.9.RELEASE.jar
7f6de45b5000-7f6de45ba000 r--s 00012000 08:01 4083447                    /home/stam/.m2/repository/javax/validation/validation-api/2.0.1.Final/validation-api-2.0.1.Final.jar
7f6de45ba000-7f6de45d7000 r--s 000fe000 08:01 7213246                    /home/stam/.m2/repository/org/hibernate/validator/hibernate-validator/6.0.12.Final/hibernate-validator-6.0.12.Final.jar
7f6de45d7000-7f6de45dc000 r--s 0003a000 08:01 7213244                    /home/stam/.m2/repository/org/apache/tomcat/embed/tomcat-embed-websocket/8.5.34/tomcat-embed-websocket-8.5.34.jar
7f6de45dc000-7f6de45dd000 r--s 00000000 08:01 7213238                    /home/stam/.m2/repository/org/springframework/boot/spring-boot-starter-tomcat/2.0.5.RELEASE/spring-boot-starter-tomcat-2.0.5.RELEASE.jar
7f6de45dd000-7f6de45df000 r--s 00001000 08:01 5378824                    /home/stam/.m2/repository/com/fasterxml/jackson/module/jackson-module-parameter-names/2.9.6/jackson-module-parameter-names-2.9.6.jar
7f6de45df000-7f6de45e2000 r--s 00016000 08:01 5378822                    /home/stam/.m2/repository/com/fasterxml/jackson/datatype/jackson-datatype-jsr310/2.9.6/jackson-datatype-jsr310-2.9.6.jar
7f6de45e2000-7f6de45e4000 r--s 00007000 08:01 5378820                    /home/stam/.m2/repository/com/fasterxml/jackson/datatype/jackson-datatype-jdk8/2.9.6/jackson-datatype-jdk8-2.9.6.jar
7f6de45e4000-7f6de45e9000 r--s 0004b000 08:01 5378818                    /home/stam/.m2/repository/com/fasterxml/jackson/core/jackson-core/2.9.6/jackson-core-2.9.6.jar
7f6de45e9000-7f6de45ec000 r--s 0000e000 08:01 5378816                    /home/stam/.m2/repository/com/fasterxml/jackson/core/jackson-annotations/2.9.0/jackson-annotations-2.9.0.jar
7f6de45ec000-7f6de45ff000 r--s 00137000 08:01 5378814                    /home/stam/.m2/repository/com/fasterxml/jackson/core/jackson-databind/2.9.6/jackson-databind-2.9.6.jar
7f6de45ff000-7f6de4600000 r--s 00000000 08:01 7213236                    /home/stam/.m2/repository/org/springframework/boot/spring-boot-starter-json/2.0.5.RELEASE/spring-boot-starter-json-2.0.5.RELEASE.jar
7f6de4600000-7f6de4601000 r--s 00000000 08:01 7213234                    /home/stam/.m2/repository/org/springframework/boot/spring-boot-starter-web/2.0.5.RELEASE/spring-boot-starter-web-2.0.5.RELEASE.jar
7f6de4601000-7f6de4603000 r--s 0000a000 08:01 7213232                    /home/stam/.m2/repository/org/springframework/spring-aspects/5.0.9.RELEASE/spring-aspects-5.0.9.RELEASE.jar
7f6de4603000-7f6de4610000 r--s 00095000 08:01 7213230                    /home/stam/.m2/repository/org/springframework/spring-beans/5.0.9.RELEASE/spring-beans-5.0.9.RELEASE.jar
7f6de4610000-7f6de4618000 r--s 00037000 08:01 7213228                    /home/stam/.m2/repository/org/springframework/spring-tx/5.0.9.RELEASE/spring-tx-5.0.9.RELEASE.jar
7f6de4618000-7f6de4632000 r--s 000f1000 08:01 7213226                    /home/stam/.m2/repository/org/springframework/spring-context/5.0.9.RELEASE/spring-context-5.0.9.RELEASE.jar
7f6de4632000-7f6de4649000 r--s 000f2000 08:01 7213222                    /home/stam/.m2/repository/org/springframework/data/spring-data-commons/2.0.10.RELEASE/spring-data-commons-2.0.10.RELEASE.jar
7f6de4649000-7f6de46c7000 r--s 005f0000 08:01 4205867                    /home/stam/.m2/repository/org/hibernate/hibernate-core/5.2.17.Final/hibernate-core-5.2.17.Final.jar
7f6de46c7000-7f6de46d8000 r-xp 00000000 08:01 8658379                    /usr/lib/jvm/java-8-openjdk-amd64/jre/lib/amd64/libnio.so
7f6de46d8000-7f6de48d8000 ---p 00011000 08:01 8658379                    /usr/lib/jvm/java-8-openjdk-amd64/jre/lib/amd64/libnio.so
7f6de48d8000-7f6de48d9000 r--p 00011000 08:01 8658379                    /usr/lib/jvm/java-8-openjdk-amd64/jre/lib/amd64/libnio.so
7f6de48d9000-7f6de48da000 rw-p 00012000 08:01 8658379                    /usr/lib/jvm/java-8-openjdk-amd64/jre/lib/amd64/libnio.so
7f6de48da000-7f6de78db000 rw-p 00000000 00:00 0 
7f6de78db000-7f6de78f2000 r-xp 00000000 08:01 8658359                    /usr/lib/jvm/java-8-openjdk-amd64/jre/lib/amd64/libnet.so
7f6de78f2000-7f6de7af1000 ---p 00017000 08:01 8658359                    /usr/lib/jvm/java-8-openjdk-amd64/jre/lib/amd64/libnet.so
7f6de7af1000-7f6de7af2000 r--p 00016000 08:01 8658359                    /usr/lib/jvm/java-8-openjdk-amd64/jre/lib/amd64/libnet.so
7f6de7af2000-7f6de7af3000 rw-p 00017000 08:01 8658359                    /usr/lib/jvm/java-8-openjdk-amd64/jre/lib/amd64/libnet.so
7f6de7af3000-7f6de7afc000 r-xp 00000000 08:01 8658364                    /usr/lib/jvm/java-8-openjdk-amd64/jre/lib/amd64/libmanagement.so
7f6de7afc000-7f6de7cfb000 ---p 00009000 08:01 8658364                    /usr/lib/jvm/java-8-openjdk-amd64/jre/lib/amd64/libmanagement.so
7f6de7cfb000-7f6de7cfc000 r--p 00008000 08:01 8658364                    /usr/lib/jvm/java-8-openjdk-amd64/jre/lib/amd64/libmanagement.so
7f6de7cfc000-7f6de7cfd000 rw-p 00009000 08:01 8658364                    /usr/lib/jvm/java-8-openjdk-amd64/jre/lib/amd64/libmanagement.so
7f6de7cfd000-7f6de7d00000 ---p 00000000 00:00 0 
7f6de7d00000-7f6de7dfe000 rw-p 00000000 00:00 0 
7f6de7dfe000-7f6de7e01000 ---p 00000000 00:00 0 
7f6de7e01000-7f6de7eff000 rw-p 00000000 00:00 0 
7f6de7eff000-7f6de7f02000 ---p 00000000 00:00 0 
7f6de7f02000-7f6de8000000 rw-p 00000000 00:00 0 
7f6de8000000-7f6de8021000 rw-p 00000000 00:00 0 
7f6de8021000-7f6dec000000 ---p 00000000 00:00 0 
7f6dec000000-7f6dec021000 rw-p 00000000 00:00 0 
7f6dec021000-7f6df0000000 ---p 00000000 00:00 0 
7f6df0000000-7f6df0021000 rw-p 00000000 00:00 0 
7f6df0021000-7f6df4000000 ---p 00000000 00:00 0 
7f6df4000000-7f6df4021000 rw-p 00000000 00:00 0 
7f6df4021000-7f6df8000000 ---p 00000000 00:00 0 
7f6df8000000-7f6df8021000 rw-p 00000000 00:00 0 
7f6df8021000-7f6dfc000000 ---p 00000000 00:00 0 
7f6dfc000000-7f6dfc004000 r--s 0002b000 08:01 7213224                    /home/stam/.m2/repository/org/springframework/spring-orm/5.0.9.RELEASE/spring-orm-5.0.9.RELEASE.jar
7f6dfc004000-7f6dfc00c000 r--s 0004c000 08:01 7213220                    /home/stam/.m2/repository/org/springframework/data/spring-data-jpa/2.0.10.RELEASE/spring-data-jpa-2.0.10.RELEASE.jar
7f6dfc00c000-7f6dfc00f000 r--s 00010000 08:01 4205888                    /home/stam/.m2/repository/org/hibernate/common/hibernate-commons-annotations/5.0.1.Final/hibernate-commons-annotations-5.0.1.Final.jar
7f6dfc00f000-7f6dfc014000 r--s 00048000 08:01 4205886                    /home/stam/.m2/repository/dom4j/dom4j/1.6.1/dom4j-1.6.1.jar
7f6dfc014000-7f6dfc016000 r--s 0000e000 08:01 5378831                    /home/stam/.m2/repository/com/fasterxml/classmate/1.3.4/classmate-1.3.4.jar
7f6dfc016000-7f6dfc019000 r--s 0002b000 08:01 4205884                    /home/stam/.m2/repository/org/jboss/jandex/2.0.3.Final/jandex-2.0.3.Final.jar
7f6dfc019000-7f6dfc01e000 r--s 00068000 08:01 4205871                    /home/stam/.m2/repository/antlr/antlr/2.7.7/antlr-2.7.7.jar
7f6dfc01e000-7f6dfc028000 r--s 000ab000 08:01 5511677                    /home/stam/.m2/repository/org/javassist/javassist/3.22.0-GA/javassist-3.22.0-GA.jar
7f6dfc028000-7f6dfc02d000 r--s 00017000 08:01 4205869                    /home/stam/.m2/repository/org/hibernate/javax/persistence/hibernate-jpa-2.1-api/1.0.2.Final/hibernate-jpa-2.1-api-1.0.2.Final.jar
7f6dfc02d000-7f6dfc02f000 r--s 0000f000 08:01 4083449                    /home/stam/.m2/repository/org/jboss/logging/jboss-logging/3.3.2.Final/jboss-logging-3.3.2.Final.jar
7f6dfc02f000-7f6dfc031000 r--s 00006000 08:01 4205890                    /home/stam/.m2/repository/javax/transaction/javax.transaction-api/1.2/javax.transaction-api-1.2.jar
7f6dfc031000-7f6dfc03a000 r--s 00059000 08:01 7213218                    /home/stam/.m2/repository/org/springframework/spring-jdbc/5.0.9.RELEASE/spring-jdbc-5.0.9.RELEASE.jar
7f6dfc03a000-7f6dfc03e000 r--s 00020000 08:01 5511675                    /home/stam/.m2/repository/com/zaxxer/HikariCP/2.7.9/HikariCP-2.7.9.jar
7f6dfc03e000-7f6dfc057000 r--s 001bf000 08:01 4205861                    /home/stam/.m2/repository/org/aspectj/aspectjweaver/1.8.13/aspectjweaver-1.8.13.jar
7f6dfc057000-7f6dfc060000 r--s 00051000 08:01 7213214                    /home/stam/.m2/repository/org/springframework/spring-aop/5.0.9.RELEASE/spring-aop-5.0.9.RELEASE.jar
7f6dfc060000-7f6dfc067000 r--s 00042000 08:01 4083439                    /home/stam/.m2/repository/org/yaml/snakeyaml/1.19/snakeyaml-1.19.jar
7f6dfc067000-7f6dfc069000 r--s 00005000 08:01 4083437                    /home/stam/.m2/repository/javax/annotation/javax.annotation-api/1.3.2/javax.annotation-api-1.3.2.jar
7f6dfc069000-7f6dfc06f000 r--s 00039000 08:01 4989460                    /home/stam/.m2/repository/org/apache/logging/log4j/log4j-api/2.10.0/log4j-api-2.10.0.jar
7f6dfc06f000-7f6dfc07a000 r--s 00069000 08:01 3950078                    /home/stam/.m2/repository/ch/qos/logback/logback-core/1.2.3/logback-core-1.2.3.jar
7f6dfc07a000-7f6dfc080000 r--s 00041000 08:01 3950076                    /home/stam/.m2/repository/ch/qos/logback/logback-classic/1.2.3/logback-classic-1.2.3.jar
7f6dfc080000-7f6dfc09b000 r--s 00394000 08:01 8658342                    /usr/lib/jvm/java-8-openjdk-amd64/jre/lib/ext/cldrdata.jar
7f6dfc09b000-7f6dfc0b6000 r--s 001d6000 08:01 8658339                    /usr/lib/jvm/java-8-openjdk-amd64/jre/lib/ext/nashorn.jar
7f6dfc0b6000-7f6dfc0b9000 ---p 00000000 00:00 0 
7f6dfc0b9000-7f6dfc1b7000 rw-p 00000000 00:00 0 
7f6dfc1b7000-7f6dfc491000 r--p 00000000 08:01 8521685                    /usr/lib/locale/locale-archive
7f6dfc491000-7f6dfc494000 ---p 00000000 00:00 0 
7f6dfc494000-7f6dfc592000 rw-p 00000000 00:00 0 
7f6dfc592000-7f6dfc595000 ---p 00000000 00:00 0 
7f6dfc595000-7f6dfc693000 rw-p 00000000 00:00 0 
7f6dfc693000-7f6dfc694000 ---p 00000000 00:00 0 
7f6dfc694000-7f6dfd10c000 rw-p 00000000 00:00 0 
7f6dfd10c000-7f6dfd2db000 r--s 03c32000 08:01 8653898                    /usr/lib/jvm/java-8-openjdk-amd64/jre/lib/rt.jar
7f6dfd2db000-7f6dffbdb000 rw-p 00000000 00:00 0 
7f6dffbdb000-7f6dffbdc000 ---p 00000000 00:00 0 
7f6dffbdc000-7f6dffcdc000 rw-p 00000000 00:00 0 
7f6dffcdc000-7f6dffcdd000 ---p 00000000 00:00 0 
7f6dffcdd000-7f6dffdf2000 rw-p 00000000 00:00 0 
7f6dffdf2000-7f6dfff23000 ---p 00000000 00:00 0 
7f6dfff23000-7f6dfff49000 rw-p 00000000 00:00 0 
7f6dfff49000-7f6dfffc7000 ---p 00000000 00:00 0 
7f6dfffc7000-7f6dfffd6000 rw-p 00000000 00:00 0 
7f6dfffd6000-7f6e00388000 ---p 00000000 00:00 0 
7f6e00388000-7f6e006e8000 rwxp 00000000 00:00 0 
7f6e006e8000-7f6e0f388000 ---p 00000000 00:00 0 
7f6e0f388000-7f6e0f390000 r-xp 00000000 08:01 8658372                    /usr/lib/jvm/java-8-openjdk-amd64/jre/lib/amd64/libzip.so
7f6e0f390000-7f6e0f58f000 ---p 00008000 08:01 8658372                    /usr/lib/jvm/java-8-openjdk-amd64/jre/lib/amd64/libzip.so
7f6e0f58f000-7f6e0f590000 r--p 00007000 08:01 8658372                    /usr/lib/jvm/java-8-openjdk-amd64/jre/lib/amd64/libzip.so
7f6e0f590000-7f6e0f591000 rw-p 00008000 08:01 8658372                    /usr/lib/jvm/java-8-openjdk-amd64/jre/lib/amd64/libzip.so
7f6e0f591000-7f6e0f59c000 r-xp 00000000 08:01 6422625                    /lib/x86_64-linux-gnu/libnss_files-2.23.so
7f6e0f59c000-7f6e0f79b000 ---p 0000b000 08:01 6422625                    /lib/x86_64-linux-gnu/libnss_files-2.23.so
7f6e0f79b000-7f6e0f79c000 r--p 0000a000 08:01 6422625                    /lib/x86_64-linux-gnu/libnss_files-2.23.so
7f6e0f79c000-7f6e0f79d000 rw-p 0000b000 08:01 6422625                    /lib/x86_64-linux-gnu/libnss_files-2.23.so
7f6e0f79d000-7f6e0f7a3000 rw-p 00000000 00:00 0 
7f6e0f7a3000-7f6e0f7ae000 r-xp 00000000 08:01 6426982                    /lib/x86_64-linux-gnu/libnss_nis-2.23.so
7f6e0f7ae000-7f6e0f9ad000 ---p 0000b000 08:01 6426982                    /lib/x86_64-linux-gnu/libnss_nis-2.23.so
7f6e0f9ad000-7f6e0f9ae000 r--p 0000a000 08:01 6426982                    /lib/x86_64-linux-gnu/libnss_nis-2.23.so
7f6e0f9ae000-7f6e0f9af000 rw-p 0000b000 08:01 6426982                    /lib/x86_64-linux-gnu/libnss_nis-2.23.so
7f6e0f9af000-7f6e0f9c5000 r-xp 00000000 08:01 6422545                    /lib/x86_64-linux-gnu/libnsl-2.23.so
7f6e0f9c5000-7f6e0fbc4000 ---p 00016000 08:01 6422545                    /lib/x86_64-linux-gnu/libnsl-2.23.so
7f6e0fbc4000-7f6e0fbc5000 r--p 00015000 08:01 6422545                    /lib/x86_64-linux-gnu/libnsl-2.23.so
7f6e0fbc5000-7f6e0fbc6000 rw-p 00016000 08:01 6422545                    /lib/x86_64-linux-gnu/libnsl-2.23.so
7f6e0fbc6000-7f6e0fbc8000 rw-p 00000000 00:00 0 
7f6e0fbc8000-7f6e0fbd0000 r-xp 00000000 08:01 6422620                    /lib/x86_64-linux-gnu/libnss_compat-2.23.so
7f6e0fbd0000-7f6e0fdcf000 ---p 00008000 08:01 6422620                    /lib/x86_64-linux-gnu/libnss_compat-2.23.so
7f6e0fdcf000-7f6e0fdd0000 r--p 00007000 08:01 6422620                    /lib/x86_64-linux-gnu/libnss_compat-2.23.so
7f6e0fdd0000-7f6e0fdd1000 rw-p 00008000 08:01 6422620                    /lib/x86_64-linux-gnu/libnss_compat-2.23.so
7f6e0fdd1000-7f6e0fdfe000 r-xp 00000000 08:01 8658389                    /usr/lib/jvm/java-8-openjdk-amd64/jre/lib/amd64/libjava.so
7f6e0fdfe000-7f6e0fffd000 ---p 0002d000 08:01 8658389                    /usr/lib/jvm/java-8-openjdk-amd64/jre/lib/amd64/libjava.so
7f6e0fffd000-7f6e0fffe000 r--p 0002c000 08:01 8658389                    /usr/lib/jvm/java-8-openjdk-amd64/jre/lib/amd64/libjava.so
7f6e0fffe000-7f6e10000000 rw-p 0002d000 08:01 8658389                    /usr/lib/jvm/java-8-openjdk-amd64/jre/lib/amd64/libjava.so
7f6e10000000-7f6e10913000 rw-p 00000000 00:00 0 
7f6e10913000-7f6e14000000 ---p 00000000 00:00 0 
7f6e14000000-7f6e14001000 r--s 00000000 08:01 7213216                    /home/stam/.m2/repository/org/springframework/boot/spring-boot-starter-jdbc/2.0.5.RELEASE/spring-boot-starter-jdbc-2.0.5.RELEASE.jar
7f6e14001000-7f6e14003000 r--s 00000000 08:01 5378812                    /home/stam/.m2/repository/org/slf4j/jul-to-slf4j/1.7.25/jul-to-slf4j-1.7.25.jar
7f6e14003000-7f6e14005000 r--s 00003000 08:01 4989456                    /home/stam/.m2/repository/org/apache/logging/log4j/log4j-to-slf4j/2.10.0/log4j-to-slf4j-2.10.0.jar
7f6e14005000-7f6e1400f000 r--s 00116000 08:01 8658347                    /usr/lib/jvm/java-8-openjdk-amd64/jre/lib/ext/localedata.jar
7f6e1400f000-7f6e14024000 rw-p 00000000 00:00 0 
7f6e14024000-7f6e14156000 ---p 00000000 00:00 0 
7f6e14156000-7f6e14165000 r-xp 00000000 08:01 8658377                    /usr/lib/jvm/java-8-openjdk-amd64/jre/lib/amd64/libverify.so
7f6e14165000-7f6e14364000 ---p 0000f000 08:01 8658377                    /usr/lib/jvm/java-8-openjdk-amd64/jre/lib/amd64/libverify.so
7f6e14364000-7f6e14366000 r--p 0000e000 08:01 8658377                    /usr/lib/jvm/java-8-openjdk-amd64/jre/lib/amd64/libverify.so
7f6e14366000-7f6e14367000 rw-p 00010000 08:01 8658377                    /usr/lib/jvm/java-8-openjdk-amd64/jre/lib/amd64/libverify.so
7f6e14367000-7f6e1436e000 r-xp 00000000 08:01 6426983                    /lib/x86_64-linux-gnu/librt-2.23.so
7f6e1436e000-7f6e1456d000 ---p 00007000 08:01 6426983                    /lib/x86_64-linux-gnu/librt-2.23.so
7f6e1456d000-7f6e1456e000 r--p 00006000 08:01 6426983                    /lib/x86_64-linux-gnu/librt-2.23.so
7f6e1456e000-7f6e1456f000 rw-p 00007000 08:01 6426983                    /lib/x86_64-linux-gnu/librt-2.23.so
7f6e1456f000-7f6e14585000 r-xp 00000000 08:01 6427147                    /lib/x86_64-linux-gnu/libgcc_s.so.1
7f6e14585000-7f6e14784000 ---p 00016000 08:01 6427147                    /lib/x86_64-linux-gnu/libgcc_s.so.1
7f6e14784000-7f6e14785000 rw-p 00015000 08:01 6427147                    /lib/x86_64-linux-gnu/libgcc_s.so.1
7f6e14785000-7f6e1488d000 r-xp 00000000 08:01 6422542                    /lib/x86_64-linux-gnu/libm-2.23.so
7f6e1488d000-7f6e14a8c000 ---p 00108000 08:01 6422542                    /lib/x86_64-linux-gnu/libm-2.23.so
7f6e14a8c000-7f6e14a8d000 r--p 00107000 08:01 6422542                    /lib/x86_64-linux-gnu/libm-2.23.so
7f6e14a8d000-7f6e14a8e000 rw-p 00108000 08:01 6422542                    /lib/x86_64-linux-gnu/libm-2.23.so
7f6e14a8e000-7f6e14c00000 r-xp 00000000 08:01 8519709                    /usr/lib/x86_64-linux-gnu/libstdc++.so.6.0.21
7f6e14c00000-7f6e14e00000 ---p 00172000 08:01 8519709                    /usr/lib/x86_64-linux-gnu/libstdc++.so.6.0.21
7f6e14e00000-7f6e14e0a000 r--p 00172000 08:01 8519709                    /usr/lib/x86_64-linux-gnu/libstdc++.so.6.0.21
7f6e14e0a000-7f6e14e0c000 rw-p 0017c000 08:01 8519709                    /usr/lib/x86_64-linux-gnu/libstdc++.so.6.0.21
7f6e14e0c000-7f6e14e10000 rw-p 00000000 00:00 0 
7f6e14e10000-7f6e15a6d000 r-xp 00000000 08:01 8658355                    /usr/lib/jvm/java-8-openjdk-amd64/jre/lib/amd64/server/libjvm.so
7f6e15a6d000-7f6e15c6d000 ---p 00c5d000 08:01 8658355                    /usr/lib/jvm/java-8-openjdk-amd64/jre/lib/amd64/server/libjvm.so
7f6e15c6d000-7f6e15d01000 r--p 00c5d000 08:01 8658355                    /usr/lib/jvm/java-8-openjdk-amd64/jre/lib/amd64/server/libjvm.so
7f6e15d01000-7f6e15d2a000 rw-p 00cf1000 08:01 8658355                    /usr/lib/jvm/java-8-openjdk-amd64/jre/lib/amd64/server/libjvm.so
7f6e15d2a000-7f6e15d5a000 rw-p 00000000 00:00 0 
7f6e15d5a000-7f6e15d72000 r-xp 00000000 08:01 6422611                    /lib/x86_64-linux-gnu/libpthread-2.23.so
7f6e15d72000-7f6e15f71000 ---p 00018000 08:01 6422611                    /lib/x86_64-linux-gnu/libpthread-2.23.so
7f6e15f71000-7f6e15f72000 r--p 00017000 08:01 6422611                    /lib/x86_64-linux-gnu/libpthread-2.23.so
7f6e15f72000-7f6e15f73000 rw-p 00018000 08:01 6422611                    /lib/x86_64-linux-gnu/libpthread-2.23.so
7f6e15f73000-7f6e15f77000 rw-p 00000000 00:00 0 
7f6e15f77000-7f6e15f7a000 r-xp 00000000 08:01 6422614                    /lib/x86_64-linux-gnu/libdl-2.23.so
7f6e15f7a000-7f6e16179000 ---p 00003000 08:01 6422614                    /lib/x86_64-linux-gnu/libdl-2.23.so
7f6e16179000-7f6e1617a000 r--p 00002000 08:01 6422614                    /lib/x86_64-linux-gnu/libdl-2.23.so
7f6e1617a000-7f6e1617b000 rw-p 00003000 08:01 6422614                    /lib/x86_64-linux-gnu/libdl-2.23.so
7f6e1617b000-7f6e16194000 r-xp 00000000 08:01 6427300                    /lib/x86_64-linux-gnu/libz.so.1.2.8
7f6e16194000-7f6e16393000 ---p 00019000 08:01 6427300                    /lib/x86_64-linux-gnu/libz.so.1.2.8
7f6e16393000-7f6e16394000 r--p 00018000 08:01 6427300                    /lib/x86_64-linux-gnu/libz.so.1.2.8
7f6e16394000-7f6e16395000 rw-p 00019000 08:01 6427300                    /lib/x86_64-linux-gnu/libz.so.1.2.8
7f6e16395000-7f6e16555000 r-xp 00000000 08:01 6422612                    /lib/x86_64-linux-gnu/libc-2.23.so
7f6e16555000-7f6e16755000 ---p 001c0000 08:01 6422612                    /lib/x86_64-linux-gnu/libc-2.23.so
7f6e16755000-7f6e16759000 r--p 001c0000 08:01 6422612                    /lib/x86_64-linux-gnu/libc-2.23.so
7f6e16759000-7f6e1675b000 rw-p 001c4000 08:01 6422612                    /lib/x86_64-linux-gnu/libc-2.23.so
7f6e1675b000-7f6e1675f000 rw-p 00000000 00:00 0 
7f6e1675f000-7f6e1676c000 r-xp 00000000 08:01 8658374                    /usr/lib/jvm/java-8-openjdk-amd64/jre/lib/amd64/jli/libjli.so
7f6e1676c000-7f6e1696c000 ---p 0000d000 08:01 8658374                    /usr/lib/jvm/java-8-openjdk-amd64/jre/lib/amd64/jli/libjli.so
7f6e1696c000-7f6e1696d000 r--p 0000d000 08:01 8658374                    /usr/lib/jvm/java-8-openjdk-amd64/jre/lib/amd64/jli/libjli.so
7f6e1696d000-7f6e1696e000 rw-p 0000e000 08:01 8658374                    /usr/lib/jvm/java-8-openjdk-amd64/jre/lib/amd64/jli/libjli.so
7f6e1696e000-7f6e16994000 r-xp 00000000 08:01 6422553                    /lib/x86_64-linux-gnu/ld-2.23.so
7f6e16994000-7f6e16995000 r--s 00000000 08:01 7213212                    /home/stam/.m2/repository/org/springframework/boot/spring-boot-starter-aop/2.0.5.RELEASE/spring-boot-starter-aop-2.0.5.RELEASE.jar
7f6e16995000-7f6e16996000 r--s 00000000 08:01 7213210                    /home/stam/.m2/repository/org/springframework/boot/spring-boot-starter-logging/2.0.5.RELEASE/spring-boot-starter-logging-2.0.5.RELEASE.jar
7f6e16996000-7f6e16997000 r--s 00000000 08:01 7213204                    /home/stam/.m2/repository/org/springframework/boot/spring-boot-starter/2.0.5.RELEASE/spring-boot-starter-2.0.5.RELEASE.jar
7f6e16997000-7f6e16998000 r--s 00000000 08:01 7213202                    /home/stam/.m2/repository/org/springframework/boot/spring-boot-starter-data-jpa/2.0.5.RELEASE/spring-boot-starter-data-jpa-2.0.5.RELEASE.jar
7f6e16998000-7f6e16a71000 rw-p 00000000 00:00 0 
7f6e16a71000-7f6e16a74000 ---p 00000000 00:00 0 
7f6e16a74000-7f6e16b76000 rw-p 00000000 00:00 0 
7f6e16b76000-7f6e16b78000 r--s 00008000 08:01 8658349                    /usr/lib/jvm/java-8-openjdk-amd64/jre/lib/ext/sunec.jar
7f6e16b78000-7f6e16b7e000 r--s 0003b000 08:01 8658348                    /usr/lib/jvm/java-8-openjdk-amd64/jre/lib/ext/sunjce_provider.jar
7f6e16b7e000-7f6e16b80000 r--s 00001000 08:01 8658345                    /usr/lib/jvm/java-8-openjdk-amd64/jre/lib/ext/dnsns.jar
7f6e16b80000-7f6e16b81000 r--s 00010000 08:01 8658346                    /usr/lib/jvm/java-8-openjdk-amd64/jre/lib/ext/zipfs.jar
7f6e16b81000-7f6e16b84000 r--s 00038000 08:01 8658344                    /usr/lib/jvm/java-8-openjdk-amd64/jre/lib/ext/sunpkcs11.jar
7f6e16b84000-7f6e16b87000 r--s 0000f000 08:01 8654367                    /usr/lib/jvm/java-8-openjdk-amd64/jre/lib/ext/icedtea-sound.jar
7f6e16b87000-7f6e16b88000 r--s 0000a000 08:01 8658350                    /usr/lib/jvm/java-8-openjdk-amd64/jre/lib/ext/jaccess.jar
7f6e16b88000-7f6e16b90000 rw-s 00000000 08:01 12455006                   /tmp/hsperfdata_stam/9400
7f6e16b90000-7f6e16b91000 rw-p 00000000 00:00 0 
7f6e16b91000-7f6e16b92000 ---p 00000000 00:00 0 
7f6e16b92000-7f6e16b93000 rw-p 00000000 00:00 0 
7f6e16b93000-7f6e16b94000 r--p 00025000 08:01 6422553                    /lib/x86_64-linux-gnu/ld-2.23.so
7f6e16b94000-7f6e16b95000 rw-p 00026000 08:01 6422553                    /lib/x86_64-linux-gnu/ld-2.23.so
7f6e16b95000-7f6e16b96000 rw-p 00000000 00:00 0 
7ffc16d70000-7ffc16d94000 rw-p 00000000 00:00 0                          [stack]
7ffc16ded000-7ffc16df0000 r--p 00000000 00:00 0                          [vvar]
7ffc16df0000-7ffc16df2000 r-xp 00000000 00:00 0                          [vdso]
ffffffffff600000-ffffffffff601000 r-xp 00000000 00:00 0                  [vsyscall]

VM Arguments:
jvm_args: -Dcom.sun.management.jmxremote -Dcom.sun.management.jmxremote.port=42123 -Dcom.sun.management.jmxremote.authenticate=false -Dcom.sun.management.jmxremote.ssl=false -Djava.rmi.server.hostname=localhost -Dspring.liveBeansView.mbeanDomain -Dspring.application.admin.enabled=true -Djava.security.egd=file:/dev/./urandom -Xverify:none -XX:TieredStopAtLevel=1 -Dfile.encoding=UTF-8 
java_command: com.thesis.wsn.webUI.DemoApplication
java_class_path (initial): /usr/lib/jvm/java-8-openjdk-amd64/jre/lib/resources.jar:/usr/lib/jvm/java-8-openjdk-amd64/jre/lib/rt.jar:/usr/lib/jvm/java-8-openjdk-amd64/jre/lib/jsse.jar:/usr/lib/jvm/java-8-openjdk-amd64/jre/lib/jce.jar:/usr/lib/jvm/java-8-openjdk-amd64/jre/lib/charsets.jar:/usr/lib/jvm/java-8-openjdk-amd64/jre/lib/ext/jaccess.jar:/usr/lib/jvm/java-8-openjdk-amd64/jre/lib/ext/icedtea-sound.jar:/usr/lib/jvm/java-8-openjdk-amd64/jre/lib/ext/sunpkcs11.jar:/usr/lib/jvm/java-8-openjdk-amd64/jre/lib/ext/zipfs.jar:/usr/lib/jvm/java-8-openjdk-amd64/jre/lib/ext/nashorn.jar:/usr/lib/jvm/java-8-openjdk-amd64/jre/lib/ext/dnsns.jar:/usr/lib/jvm/java-8-openjdk-amd64/jre/lib/ext/cldrdata.jar:/usr/lib/jvm/java-8-openjdk-amd64/jre/lib/ext/localedata.jar:/usr/lib/jvm/java-8-openjdk-amd64/jre/lib/ext/sunjce_provider.jar:/usr/lib/jvm/java-8-openjdk-amd64/jre/lib/ext/sunec.jar:/home/stam/WebUI_Workspace_V2/webUIWIthDBv2/target/classes:/home/stam/.m2/repository/org/springframework/boot/spring-boot-starter-data-jpa/2.0.5.RELEASE/spring-boot-starter-data-jpa-2.0.5.RELEASE.jar:/home/stam/.m2/repository/org/springframework/boot/spring-boot-starter/2.0.5.RELEASE/spring-boot-starter-2.0.5.RELEASE.jar:/home/stam/.m2/repository/org/springframework/boot/spring-boot-starter-logging/2.0.5.RELEASE/spring-boot-starter-logging-2.0.5.RELEASE.jar:/home/stam/.m2/repository/ch/qos/logback/logback-classic/1.2.3/logback-classic-1.2.3.jar:/home/stam/.m2/repository/ch/qos/logback/logback-core/1.2.3/logback-core-1.2.3.jar:/home/stam/.m2/repository/org/apache/logging/log4j/log4j-to-slf4j/2.10.0/log4j-to-slf4j-2.10.0.jar:/home/stam/.m2/repository/org/apache/logging/log4j/log4j-api/2.10.0/log4j-api-2.10.0.jar:/home/stam/.m2/repository/org/slf4j/jul-to-slf4j/1.7.25/jul-to-slf4j-1.7.25.jar:/home/stam/.m2/repository/javax/annotation/javax.annotation-api/1.3.2/javax.annotation-api-1.3.2.jar:/home/stam/.m2/repository/org/yaml/snakeyaml/1.19/snakeyaml-1.19.jar:/home/stam/.m2/repository/org/springframewor
Launcher Type: SUN_STANDARD

Environment Variables:
PATH=/opt/compilers/mspgcc-4.7.3/bin:/opt/compilers/mspgcc-4.7.3/lib:/opt/compilers/mspgcc-4.7.3/include:/home/stam/bin:/home/stam/.local/bin:/usr/local/sbin:/usr/local/bin:/usr/sbin:/usr/bin:/sbin:/bin:/usr/games:/usr/local/games:/opt/compilers/mspgcc-4.7.3/bin:/snap/bin
SHELL=/bin/bash
DISPLAY=:0

Signal Handlers:
SIGSEGV: [libjvm.so+0xa71a30], sa_mask[0]=11111111011111111101111111111110, sa_flags=SA_RESTART|SA_SIGINFO
SIGBUS: [libjvm.so+0xa71a30], sa_mask[0]=11111111011111111101111111111110, sa_flags=SA_RESTART|SA_SIGINFO
SIGFPE: [libjvm.so+0x8b8f40], sa_mask[0]=11111111011111111101111111111110, sa_flags=SA_RESTART|SA_SIGINFO
SIGPIPE: [libjvm.so+0x8b8f40], sa_mask[0]=11111111011111111101111111111110, sa_flags=SA_RESTART|SA_SIGINFO
SIGXFSZ: [libjvm.so+0x8b8f40], sa_mask[0]=11111111011111111101111111111110, sa_flags=SA_RESTART|SA_SIGINFO
SIGILL: [libjvm.so+0x8b8f40], sa_mask[0]=11111111011111111101111111111110, sa_flags=SA_RESTART|SA_SIGINFO
SIGUSR1: SIG_DFL, sa_mask[0]=00000000000000000000000000000000, sa_flags=none
SIGUSR2: [libjvm.so+0x8b8df0], sa_mask[0]=00100000000000000000000000000000, sa_flags=SA_RESTART|SA_SIGINFO
SIGHUP: [libjvm.so+0x8b92c0], sa_mask[0]=11111111011111111101111111111110, sa_flags=SA_RESTART|SA_SIGINFO
SIGINT: [libjvm.so+0x8b92c0], sa_mask[0]=11111111011111111101111111111110, sa_flags=SA_RESTART|SA_SIGINFO
SIGTERM: [libjvm.so+0x8b92c0], sa_mask[0]=11111111011111111101111111111110, sa_flags=SA_RESTART|SA_SIGINFO
SIGQUIT: [libjvm.so+0x8b92c0], sa_mask[0]=11111111011111111101111111111110, sa_flags=SA_RESTART|SA_SIGINFO


---------------  S Y S T E M  ---------------

OS:DISTRIB_ID=Ubuntu
DISTRIB_RELEASE=16.04
DISTRIB_CODENAME=xenial
DISTRIB_DESCRIPTION="Ubuntu 16.04.5 LTS"

uname:Linux 4.15.0-34-generic #37~16.04.1-Ubuntu SMP Tue Aug 28 10:44:06 UTC 2018 x86_64
libc:glibc 2.23 NPTL 2.23 
rlimit: STACK 8192k, CORE 0k, NPROC 15418, NOFILE 1048576, AS infinity
load average:5.06 4.80 3.69

/proc/meminfo:
MemTotal:        4006540 kB
MemFree:           92548 kB
MemAvailable:       2836 kB
Buffers:            1216 kB
Cached:            34656 kB
SwapCached:         7616 kB
Active:          2994884 kB
Inactive:         612384 kB
Active(anon):    2984760 kB
Inactive(anon):   597056 kB
Active(file):      10124 kB
Inactive(file):    15328 kB
Unevictable:         272 kB
Mlocked:             272 kB
SwapTotal:       4159484 kB
SwapFree:              0 kB
Dirty:               188 kB
Writeback:             0 kB
AnonPages:       3568140 kB
Mapped:            21112 kB
Shmem:             10308 kB
Slab:              95212 kB
SReclaimable:      36220 kB
SUnreclaim:        58992 kB
KernelStack:       15472 kB
PageTables:        80540 kB
NFS_Unstable:          0 kB
Bounce:                0 kB
WritebackTmp:          0 kB
CommitLimit:     6162752 kB
Committed_AS:   17078748 kB
VmallocTotal:   34359738367 kB
VmallocUsed:           0 kB
VmallocChunk:          0 kB
HardwareCorrupted:     0 kB
AnonHugePages:         0 kB
ShmemHugePages:        0 kB
ShmemPmdMapped:        0 kB
CmaTotal:              0 kB
CmaFree:               0 kB
HugePages_Total:       0
HugePages_Free:        0
HugePages_Rsvd:        0
HugePages_Surp:        0
Hugepagesize:       2048 kB
DirectMap4k:      427596 kB
DirectMap2M:     3733504 kB


CPU:total 2 (initial active 2) (2 cores per cpu, 1 threads per core) family 6 model 23 stepping 10, cmov, cx8, fxsr, mmx, sse, sse2, sse3, ssse3, sse4.1, tsc

/proc/cpuinfo:
processor	: 0
vendor_id	: GenuineIntel
cpu family	: 6
model		: 23
model name	: Intel(R) Core(TM)2 Duo CPU     P7550  @ 2.26GHz
stepping	: 10
microcode	: 0xa0b
cpu MHz		: 2261.089
cache size	: 3072 KB
physical id	: 0
siblings	: 2
core id		: 0
cpu cores	: 2
apicid		: 0
initial apicid	: 0
fpu		: yes
fpu_exception	: yes
cpuid level	: 13
wp		: yes
flags		: fpu vme de pse tsc msr pae mce cx8 apic sep mtrr pge mca cmov pat pse36 clflush dts acpi mmx fxsr sse sse2 ss ht tm pbe syscall nx lm constant_tsc arch_perfmon pebs bts rep_good nopl cpuid aperfmperf pni dtes64 monitor ds_cpl est tm2 ssse3 cx16 xtpr pdcm sse4_1 xsave lahf_lm pti dtherm
bugs		: cpu_meltdown spectre_v1 spectre_v2 spec_store_bypass l1tf
bogomips	: 4522.17
clflush size	: 64
cache_alignment	: 64
address sizes	: 36 bits physical, 48 bits virtual
power management:

processor	: 1
vendor_id	: GenuineIntel
cpu family	: 6
model		: 23
model name	: Intel(R) Core(TM)2 Duo CPU     P7550  @ 2.26GHz
stepping	: 10
microcode	: 0xa0b
cpu MHz		: 2261.089
cache size	: 3072 KB
physical id	: 0
siblings	: 2
core id		: 1
cpu cores	: 2
apicid		: 1
initial apicid	: 1
fpu		: yes
fpu_exception	: yes
cpuid level	: 13
wp		: yes
flags		: fpu vme de pse tsc msr pae mce cx8 apic sep mtrr pge mca cmov pat pse36 clflush dts acpi mmx fxsr sse sse2 ss ht tm pbe syscall nx lm constant_tsc arch_perfmon pebs bts rep_good nopl cpuid aperfmperf pni dtes64 monitor ds_cpl est tm2 ssse3 cx16 xtpr pdcm sse4_1 xsave lahf_lm pti dtherm
bugs		: cpu_meltdown spectre_v1 spectre_v2 spec_store_bypass l1tf
bogomips	: 4522.17
clflush size	: 64
cache_alignment	: 64
address sizes	: 36 bits physical, 48 bits virtual
power management:



Memory: 4k page, physical 4006540k(87704k free), swap 4159484k(0k free)

vm_info: OpenJDK 64-Bit Server VM (25.181-b13) for linux-amd64 JRE (1.8.0_181-8u181-b13-0ubuntu0.16.04.1-b13), built on Jul 30 2018 21:06:27 by "buildd" with gcc 5.4.0 20160609

time: Wed Sep 26 19:40:56 2018
elapsed time: 10 seconds (0d 0h 0m 10s)

